null
true
delete
true
true
delete
delete
true
true
null
true
delete
delete
delete
true
null
true
true
null
delete
null
true
delete
true
true
delete
null
null
true
true
true
true
null
delete
null
true
delete
delete
null
null
true
delete
delete
true
delete
true
true
true
true
delete
true
true
true
true
delete
true
null
delete
delete
true
delete
null
true
true
true
true
delete
delete
true
null
true
null
null
delete
true
delete
false
true
delete
delete
delete
true
delete
delete
delete
true
null
true
null
null
delete
null
delete
delete
true
null
false
null
delete
true
true
delete
true
true
57
delete
null
null
delete
false
delete
delete
delete
null
null
true
null
null
delete
false
true
delete
true
null
-13
true
true
false
null
null
true
delete
delete
delete
true
delete
delete
delete
null
null
false
delete
delete
true
delete
true
null
true
delete
null
true
true
false
delete
true
delete
true
null
true
delete
true
delete
delete
true
delete
null
null
delete
true
delete
-88
true
true
false
true
true
delete
null
null
true
delete
null
null
true
true
false
delete
delete
null
null
true
delete
null
false
true
delete
null
true
true
null
delete
delete
true
null
true
true
true
delete
null
true
null
true
true
null
null
delete
delete
null
delete
null
delete
null
true
true
delete
delete
null
false
true
delete
delete
null
delete
null
true
delete
null
delete
null
true
null
null
true
true
true
null
delete
null
true
true
null
null
delete
null
null
delete
true
delete
82
null
null
delete
delete
null
delete
delete
null
true
delete
null
true
delete
-17
true
delete
delete
delete
true
null
delete
null
delete
23
delete
null
null
true
null
null
true
true
true
true
null
delete
true
true
delete
delete
null
null
null
true
true
true
true
null
null
null
null
delete
null
true
true
true
null
null
delete
null
null
true
null
true
null
true
null
delete
true
true
delete
false
-50
delete
delete
delete
true
delete
null
true
true
true
true
delete
true
delete
delete
null
true
delete
delete
delete
true
null
true
null
true
null
delete
false
delete
null
true
true
null
delete
null
true
delete
delete
null
true
null
62
delete
delete
94
null
null
true
delete
delete
true
false
null
delete
delete
delete
null
true
delete
null
delete
delete
delete
null
delete
23
delete
true
null
null
delete
delete
null
null
delete
delete
true
delete
true
delete
true
delete
null
delete
null
true
delete
null
null
true
delete
delete
true
delete
null
true
null
true
delete
delete
null
delete
delete
null
null
true
delete
true
null
true
delete
null
delete
delete
null
true
null
null
null
delete
true
null
false
null
true
null
null
null
false
null
delete
delete
null
delete
delete
null
null
false
null
delete
null
false
delete
null
delete
null
delete
false
null
delete
true
delete
delete
null
null
delete
true
delete
delete
delete
null
true
delete
delete
delete
true
delete
true
delete
delete
delete
delete
delete
delete
true
delete
null
delete
null
null
null
null
null
delete
-75
null
null
true
true
delete
delete
delete
delete
true
delete
true
delete
null
null
delete
delete
true
true
delete
true
false
null
true
null
-97
null
-10
null
delete
null
false
delete
delete
true
null
delete
true
delete
null
delete
true
null
delete
null
delete
null
20
true
true
true
true
delete
null
delete
true
null
null
delete
delete
delete
delete
true
true
delete
false
null
true
delete
delete
null
delete
null
delete
delete
true
delete
null
null
true
true
delete
true
true
true
delete
null
-91
delete
true
true
null
null
true
null
null
null
true
true
true
null
delete
delete
true
delete
false
delete
true
null
false
delete
true
delete
null
null
91
delete
null
true
delete
null
delete
delete
true
null
true
-85
delete
delete
null
null
null
delete
true
null
false
delete
null
delete
delete
delete
true
true
true
null
delete
null
delete
true
null
null
delete
null
delete
null
delete
null
null
delete
91
null
delete
true
null
delete
delete
null
null
delete
-31
true
true
null
null
delete
null
true
true
null
null
delete
false
true
null
delete
null
true
true
delete
delete
delete
null
null
true
delete
null
false
delete
delete
delete
false
true
delete
null
delete
delete
delete
true
null
null
71
true
null
true
null
null
true
null
91
true
delete
delete
true
true
true
delete
true
null
true
null
delete
true
null
20
null
-85
null
delete
delete
delete
-23
true
true
delete
delete
delete
null
delete
true
delete
null
null
true
null
true
true
true
delete
true
true
null
delete
delete
true
null
delete
null
null
null
null
true
delete
true
null
true
true
null
null
delete
delete
delete
null
delete
delete
delete
true
true
null
null
null
null
delete
delete
true
true
true
true
null
null
null
null
false
null
null
true
delete
true
delete
true
false
delete
true
delete
true
true
true
delete
null
null
null
null
delete
true
null
false
null
delete
true
null
true
null
null
null
delete
delete
delete
true
-91
null
true
null
delete
delete
null
null
null
null
delete
null
delete
delete
delete
true
delete
delete
delete
null
delete
null
true
delete
delete
false
null
true
null
null
true
null
false
true
null
delete
false
false
true
null
86
false
delete
true
null
true
null
null
true
null
null
delete
delete
delete
delete
true
null
true
true
true
true
null
null
null
42
null
null
39
delete
true
null
null
null
false
null
true
true
delete
delete
true
delete
null
delete
delete
false
null
false
true
null
delete
true
true
true
delete
-23
null
true
false
delete
true
delete
true
null
delete
delete
delete
delete
delete
null
-78
true
delete
true
delete
41
true
null
delete
null
true
null
null
null
true
null
true
delete
delete
delete
null
true
true
null
delete
delete
null
delete
delete
delete
true
delete
delete
null
false
null
false
delete
true
delete
delete
true
true
null
null
delete
delete
null
null
true
delete
null
-24
true
true
delete
delete
true
null
null
delete
delete
null
true
delete
true
-78
delete
delete
delete
delete
true
delete
true
true
delete
true
delete
null
delete
null
null
true
null
true
true
true
true
delete
true
null
true
true
true
true
delete
true
true
delete
true
true
false
null
true
true
delete
null
delete
true
null
true
-80
true
null
false
null
81
null
true
true
true
delete
false
delete
null
true
delete
delete
delete
true
false
null
delete
null
delete
true
delete
null
91
true
null
true
null
true
true
null
null
delete
delete
delete
true
delete
true
delete
delete
delete
delete
delete
delete
true
true
-92
delete
null
null
null
null
delete
true
true
delete
null
true
delete
delete
delete
87
true
null
null
delete
true
delete
null
45
true
delete
delete
false
delete
delete
null
true
delete
delete
true
true
true
null
null
delete
true
true
null
null
delete
true
delete
-92
delete
-10
delete
true
true
delete
true
true
delete
delete
null
true
false
true
true
false
true
delete
true
null
true
delete
delete
true
null
delete
26
null
delete
null
delete
null
true
null
null
null
true
delete
null
delete
false
null
delete
delete
delete
true
true
true
delete
delete
true
true
true
true
true
delete
delete
true
delete
delete
null
null
null
delete
true
null
null
delete
true
null
true
true
null
false
delete
delete
delete
null
null
delete
null
true
null
true
delete
true
true
-59
delete
delete
delete
delete
delete
false
null
null
true
null
true
true
true
null
delete
delete
delete
delete
null
true
true
true
null
82
true
delete
delete
delete
true
null
null
delete
false
null
null
true
null
null
null
delete
true
true
false
delete
true
null
true
false
delete
delete
true
delete
delete
delete
true
true
true
null
true
null
null
delete
null
delete
-52
true
true
delete
true
45
delete
null
true
true
delete
null
delete
null
null
null
delete
delete
true
delete
null
true
delete
true
false
null
90
delete
true
delete
false
delete
true
delete
45
true
delete
true
true
null
delete
true
true
delete
null
true
delete
true
delete
delete
null
-12
true
true
null
null
null
null
null
null
null
null
48
null
delete
delete
null
false
delete
null
true
true
null
delete
null
delete
null
delete
true
false
23
delete
null
true
delete
null
true
true
delete
true
true
null
true
delete
delete
delete
delete
true
delete
true
true
true
delete
null
null
true
true
true
null
delete
-1
null
null
null
delete
false
delete
delete
delete
-56
null
true
true
null
-78
15
true
true
null
null
delete
true
delete
true
null
null
null
true
true
delete
false
delete
null
true
null
true
delete
delete
delete
null
true
null
delete
delete
true
null
true
null
delete
delete
delete
delete
delete
delete
null
81
true
true
true
null
null
delete
delete
true
true
null
null
null
null
delete
delete
null
null
20
54
null
null
-59
null
true
delete
null
delete
delete
true
delete
true
delete
delete
delete
delete
null
true
true
false
null
true
delete
delete
true
null
delete
null
false
null
null
true
delete
null
null
true
true
null
true
true
false
true
delete
delete
delete
null
delete
null
null
true
false
null
false
null
35
null
delete
true
null
true
null
delete
null
delete
false
false
null
true
true
delete
true
true
null
null
delete
true
delete
delete
delete
true
delete
delete
delete
false
delete
true
null
null
true
delete
delete
delete
true
delete
delete
null
delete
-92
null
delete
delete
true
delete
15
delete
delete
true
true
true
true
delete
true
null
delete
35
true
null
true
null
null
42
false
delete
true
null
true
null
true
delete
delete
false
delete
true
true
true
null
null
true
delete
null
delete
true
delete
delete
-97
true
-98
null
false
true
null
null
delete
false
delete
delete
true
true
false
delete
true
null
null
null
true
delete
delete
true
delete
null
true
null
true
null
null
delete
delete
true
delete
delete
true
true
true
delete
delete
delete
true
true
null
delete
true
true
delete
delete
false
null
delete
delete
delete
delete
null
delete
false
true
null
null
-21
null
delete
15
true
true
delete
delete
delete
18
null
true
delete
null
null
delete
delete
true
delete
false
false
delete
delete
delete
null
14
null
-92
null
true
delete
null
null
true
null
null
false
null
true
null
delete
true
delete
null
true
delete
true
true
delete
null
39
true
delete
true
delete
delete
delete
true
true
null
true
true
delete
true
delete
null
null
true
false
false
null
true
null
true
null
delete
delete
false
null
true
null
delete
delete
false
null
delete
delete
true
delete
null
null
null
delete
null
delete
delete
true
delete
false
true
null
false
-1
true
delete
78
45
7
delete
delete
delete
null
true
20
delete
delete
false
delete
false
delete
delete
true
true
null
true
-33
null
null
delete
21
false
false
-96
null
true
null
true
null
true
true
45
false
true
delete
delete
true
null
true
delete
null
false
true
delete
delete
delete
61
delete
delete
null
delete
true
delete
delete
true
-47
null
true
delete
false
null
91
false
false
95
delete
null
true
delete
delete
delete
delete
true
delete
false
null
null
delete
delete
null
null
null
true
true
true
null
delete
18
false
40
false
true
false
delete
true
null
null
null
true
true
null
delete
delete
delete
delete
true
true
48
delete
delete
true
delete
delete
delete
delete
true
null
68
null
false
true
false
4
delete
true
true
true
null
delete
null
true
null
true
delete
null
true
true
true
false
delete
false
true
true
true
null
null
35
true
false
delete
delete
null
null
true
-47
delete
delete
delete
delete
null
null
delete
true
71
null
true
true
null
true
delete
true
null
true
delete
delete
delete
delete
true
null
false
delete
delete
delete
true
null
delete
false
25
true
null
null
delete
true
delete
true
false
null
null
delete
true
true
true
true
true
null
null
delete
delete
false
true
true
true
true
delete
-43
delete
true
delete
delete
delete
null
true
true
null
delete
-68
null
false
null
null
-33
null
true
null
true
-92
null
false
delete
-24
null
null
delete
delete
null
delete
true
delete
null
delete
null
true
35
delete
true
true
true
delete
false
delete
null
null
true
null
delete
false
null
delete
delete
null
null
true
delete
20
null
null
delete
delete
null
null
45
null
null
null
true
true
delete
true
true
-1
true
false
true
true
-10
delete
null
true
delete
true
true
true
null
delete
true
true
delete
true
delete
null
-1
true
true
null
true
delete
delete
delete
null
null
delete
null
delete
true
delete
null
null
true
null
false
null
delete
delete
delete
null
true
null
null
91
true
null
null
null
delete
delete
null
true
true
delete
true
delete
true
null
null
true
false
null
-47
-85
delete
delete
false
null
delete
false
delete
60
null
delete
null
true
delete
null
delete
true
null
true
delete
null
false
null
true
true
48
null
78
null
delete
delete
true
true
delete
true
delete
true
null
delete
true
delete
delete
delete
delete
null
delete
null
true
true
null
delete
45
delete
delete
delete
delete
true
null
delete
-93
true
delete
null
delete
false
delete
-93
null
delete
true
null
delete
true
-78
true
null
false
null
delete
delete
delete
true
true
false
delete
delete
delete
null
delete
true
null
null
true
true
null
delete
null
true
delete
true
false
null
null
delete
false
true
false
delete
delete
delete
null
true
null
delete
true
delete
null
null
delete
false
null
-62
delete
false
null
delete
delete
delete
delete
false
true
delete
delete
delete
delete
delete
true
delete
false
true
delete
null
true
null
false
true
null
false
null
delete
delete
null
null
false
true
delete
null
true
false
true
null
true
true
delete
delete
91
delete
59
null
true
true
true
delete
null
true
-43
true
true
true
delete
delete
null
null
true
null
delete
-21
true
delete
-24
false
true
null
null
true
true
true
null
delete
delete
true
false
null
delete
delete
delete
null
delete
-78
true
delete
delete
true
null
delete
null
null
null
null
null
true
null
true
true
delete
true
delete
-10
null
true
false
true
null
true
null
true
null
true
delete
delete
true
null
true
delete
true
true
null
null
null
true
null
true
delete
true
null
null
true
delete
delete
null
true
delete
true
delete
true
null
delete
false
true
true
false
delete
delete
null
null
delete
delete
true
delete
true
delete
delete
delete
true
delete
true
delete
delete
true
null
delete
delete
delete
delete
delete
false
-91
null
null
null
98
null
null
delete
delete
delete
delete
delete
null
false
null
delete
null
delete
null
delete
delete
delete
null
true
null
delete
true
-21
true
null
true
null
delete
delete
null
68
null
-61
-83
delete
delete
null
null
79
delete
71
delete
delete
delete
null
true
null
null
delete
delete
true
delete
delete
true
true
null
true
null
delete
delete
delete
null
true
null
null
null
null
true
delete
delete
true
true
null
delete
null
true
-1
null
91
true
-6
null
54
true
null
null
null
23
delete
delete
null
delete
delete
delete
delete
true
delete
true
delete
true
delete
delete
delete
delete
true
delete
null
null
true
true
false
null
true
null
null
delete
delete
delete
delete
false
delete
null
false
delete
null
true
delete
true
delete
25
null
true
delete
delete
true
52
delete
delete
null
true
null
delete
-96
null
42
null
false
-48
false
delete
delete
null
null
true
delete
true
true
delete
true
delete
delete
null
delete
delete
delete
delete
false
null
true
delete
null
true
null
delete
delete
delete
delete
null
delete
-1
delete
delete
true
true
true
delete
false
delete
delete
delete
delete
delete
delete
null
delete
true
true
-17
29
delete
delete
true
null
null
true
delete
false
true
delete
true
true
null
null
null
delete
delete
true
null
true
false
true
null
null
delete
4
null
null
delete
delete
delete
true
null
delete
null
true
true
delete
delete
null
null
false
false
true
delete
delete
25
true
true
79
true
true
-21
true
54
false
true
null
false
true
true
delete
false
true
delete
delete
delete
null
null
null
delete
true
false
-62
null
delete
true
null
false
-1
true
true
true
true
delete
delete
null
null
null
null
null
null
delete
null
delete
null
delete
delete
null
true
-21
null
delete
true
null
true
true
delete
delete
false
null
null
delete
delete
null
delete
null
true
false
delete
false
delete
delete
null
delete
delete
delete
delete
delete
true
delete
delete
null
4
true
-85
delete
null
delete
null
delete
delete
true
delete
50
-89
delete
false
delete
true
delete
delete
delete
true
delete
4
false
true
delete
true
delete
delete
true
null
true
null
true
true
false
delete
true
true
-49
false
delete
delete
null
false
48
delete
true
false
null
delete
true
delete
true
false
true
delete
null
null
delete
null
true
null
true
91
null
true
null
null
true
null
delete
false
true
null
null
delete
delete
true
-21
delete
delete
delete
-92
true
delete
delete
true
false
null
delete
delete
delete
true
-9
null
delete
-83
null
null
true
delete
delete
delete
true
null
false
delete
23
null
true
true
45
delete
delete
true
null
true
delete
true
null
null
true
true
23
null
delete
73
delete
null
delete
delete
delete
delete
delete
delete
null
delete
true
null
delete
null
delete
null
false
true
null
delete
null
false
true
null
null
null
delete
delete
delete
delete
delete
delete
true
-41
false
delete
null
true
true
false
true
true
null
true
true
delete
null
delete
-8
false
null
null
null
null
true
null
-9
15
delete
delete
false
delete
-41
false
true
true
true
true
true
true
delete
null
false
null
delete
true
delete
null
false
true
null
true
79
delete
null
null
true
null
null
null
true
4
true
false
-3
true
true
null
75
delete
delete
delete
true
null
delete
-78
delete
null
null
null
delete
null
true
null
-9
delete
false
false
null
null
false
31
null
null
null
null
delete
true
73
null
true
null
true
delete
false
delete
true
null
true
delete
delete
null
delete
true
delete
delete
true
delete
null
false
delete
null
false
false
true
delete
false
delete
true
delete
delete
null
16
null
delete
delete
delete
false
false
null
true
true
true
true
delete
false
23
delete
delete
delete
null
delete
delete
delete
-41
null
delete
delete
delete
null
45
true
delete
true
null
null
delete
null
delete
null
null
null
delete
false
false
true
true
delete
delete
delete
delete
false
null
null
delete
null
delete
-33
null
delete
null
54
null
null
true
null
delete
delete
delete
null
true
true
true
delete
true
delete
true
delete
true
null
delete
delete
null
null
delete
true
true
null
delete
null
null
delete
true
delete
true
delete
null
true
null
delete
null
delete
delete
true
null
null
delete
delete
false
null
true
true
delete
null
delete
null
delete
delete
true
true
true
delete
true
true
true
null
delete
null
true
true
delete
true
delete
delete
null
true
false
true
delete
null
true
null
false
delete
true
delete
null
null
true
false
null
delete
null
delete
true
delete
null
delete
delete
null
true
true
delete
null
4
null
null
delete
delete
-90
delete
null
true
false
true
true
null
delete
delete
delete
false
null
true
null
delete
true
delete
true
delete
true
null
delete
null
true
-92
null
true
true
null
null
delete
delete
true
false
true
true
null
false
delete
null
null
false
true
null
true
delete
null
null
null
delete
true
null
delete
delete
true
delete
delete
true
null
true
null
true
null
delete
delete
false
true
null
delete
null
delete
null
delete
delete
delete
true
-63
null
delete
true
-65
true
true
null
true
true
true
true
true
delete
delete
57
delete
null
delete
delete
null
null
null
true
delete
delete
true
null
true
delete
delete
-29
delete
delete
true
true
-62
delete
delete
delete
20
delete
true
null
null
true
delete
null
null
null
false
true
null
delete
delete
delete
delete
delete
delete
null
71
delete
delete
delete
delete
true
delete
null
null
delete
delete
delete
true
delete
true
true
delete
null
null
true
delete
delete
null
57
true
delete
null
true
delete
false
delete
null
null
false
delete
true
delete
true
true
true
null
delete
true
delete
delete
true
delete
null
delete
-14
delete
delete
delete
null
true
null
delete
null
null
null
delete
true
delete
delete
delete
null
null
delete
true
delete
true
delete
false
delete
delete
-27
true
true
20
delete
null
true
true
delete
delete
false
false
-14
null
null
false
true
delete
null
delete
true
70
true
false
delete
false
true
delete
true
null
delete
true
delete
delete
true
null
delete
null
23
delete
null
delete
delete
delete
false
null
true
true
-23
true
null
55
true
delete
null
delete
delete
true
delete
delete
true
null
true
false
delete
delete
null
delete
delete
null
null
66
false
null
48
true
null
delete
57
delete
false
null
null
true
true
null
null
true
true
true
null
null
true
delete
delete
true
-78
true
true
delete
null
true
delete
true
delete
-33
delete
null
delete
true
null
true
false
delete
true
null
true
true
delete
delete
true
null
delete
true
null
null
delete
true
delete
delete
delete
delete
null
delete
delete
-97
delete
true
delete
delete
delete
delete
null
true
delete
null
true
66
true
true
delete
24
false
true
delete
null
true
false
null
null
null
null
true
48
delete
false
null
true
delete
false
delete
delete
null
null
delete
true
delete
true
true
true
delete
delete
delete
48
null
null
delete
true
delete
true
null
true
delete
delete
null
true
delete
true
delete
delete
delete
null
-79
delete
null
delete
null
null
true
null
true
null
delete
delete
delete
true
false
delete
delete
true
false
-62
delete
delete
true
false
delete
delete
delete
delete
true
29
delete
null
true
delete
delete
true
true
delete
delete
null
true
null
null
null
53
true
true
null
null
-1
true
-36
delete
delete
true
delete
null
delete
delete
true
delete
delete
delete
true
delete
false
delete
true
null
delete
delete
delete
true
null
null
null
null
true
true
true
73
delete
null
delete
delete
null
delete
true
null
true
delete
false
delete
20
null
true
-24
true
delete
true
delete
-22
delete
delete
50
delete
delete
70
-11
66
true
-24
false
delete
delete
true
delete
null
true
null
true
delete
true
null
delete
delete
true
true
delete
delete
null
delete
false
null
27
delete
delete
false
null
null
null
null
null
null
false
false
delete
43
null
null
delete
true
delete
null
delete
delete
delete
delete
null
delete
null
delete
true
true
true
delete
null
null
true
null
false
false
true
null
true
delete
delete
null
true
delete
true
true
null
delete
true
true
true
delete
false
delete
true
false
null
null
null
null
null
delete
true
delete
false
null
null
true
-85
false
delete
70
56
delete
delete
false
true
null
true
delete
true
true
null
-73
true
false
true
false
null
delete
null
delete
null
85
45
true
delete
null
43
delete
delete
null
true
29
delete
delete
null
true
true
null
true
79
null
delete
true
54
true
false
null
delete
null
false
delete
delete
delete
delete
true
73
67
delete
delete
null
true
delete
null
-92
null
delete
delete
null
delete
null
delete
true
false
delete
false
47
true
false
null
delete
delete
delete
delete
true
delete
null
false
delete
null
delete
true
null
true
delete
delete
true
delete
-45
true
delete
delete
delete
false
null
null
-36
true
false
null
delete
true
48
null
null
-36
true
true
delete
delete
null
true
true
true
delete
null
false
delete
delete
null
null
56
null
false
-13
true
delete
delete
true
null
false
null
7
false
delete
delete
delete
true
delete
delete
delete
delete
-36
true
delete
true
true
delete
delete
delete
delete
null
true
null
false
delete
null
-10
true
delete
true
-85
true
delete
null
20
-84
false
true
true
delete
delete
-65
delete
false
null
null
true
false
null
true
true
true
delete
delete
null
null
false
false
-65
true
null
null
90
delete
true
41
delete
true
delete
null
null
delete
23
true
delete
null
true
delete
delete
true
false
true
delete
null
delete
24
delete
null
delete
delete
delete
true
-29
true
34
null
true
delete
true
null
delete
null
null
null
delete
null
true
null
true
1
true
delete
null
false
-73
-77
true
true
delete
null
false
delete
true
null
delete
delete
false
delete
null
true
null
delete
null
delete
4
delete
null
false
-44
null
delete
delete
false
true
true
true
delete
91
41
true
-77
delete
false
null
null
null
null
true
true
false
-36
delete
-24
true
null
true
false
true
true
null
true
false
true
true
null
delete
7
false
true
true
delete
false
79
delete
null
delete
delete
null
false
true
null
null
false
delete
null
null
delete
true
null
41
null
delete
true
false
delete
false
delete
false
true
null
delete
true
false
null
delete
delete
false
-16
delete
null
delete
delete
-73
delete
null
20
-51
true
true
null
delete
true
0
delete
null
null
false
true
false
false
null
null
delete
null
false
delete
-24
delete
delete
null
-16
57
delete
true
delete
false
null
null
delete
true
false
null
delete
true
delete
true
delete
delete
null
null
delete
delete
delete
null
null
null
delete
true
false
delete
null
delete
null
0
delete
true
true
false
delete
null
delete
27
null
false
true
false
54
delete
-67
null
true
delete
true
null
-67
true
true
delete
null
31
false
true
delete
false
true
false
true
delete
null
79
true
true
delete
delete
true
null
delete
true
true
delete
delete
null
23
delete
-10
delete
null
true
null
delete
false
null
null
-16
true
false
null
42
delete
delete
null
true
delete
true
null
delete
true
null
true
delete
delete
true
false
delete
delete
45
23
delete
delete
true
delete
null
delete
0
true
false
false
true
delete
delete
delete
false
null
null
true
28
-85
delete
false
delete
delete
delete
delete
delete
null
false
delete
null
66
delete
delete
delete
null
delete
null
true
true
false
null
null
delete
true
-77
delete
true
true
-90
true
20
delete
delete
delete
null
null
delete
null
true
delete
null
delete
delete
true
delete
true
false
true
-97
null
delete
null
null
true
delete
delete
true
68
6
delete
null
false
false
null
null
true
delete
7
delete
43
false
null
delete
delete
-34
true
delete
delete
true
true
true
true
delete
true
false
true
delete
null
delete
false
null
delete
delete
delete
null
null
delete
true
null
null
false
true
null
false
delete
delete
null
6
delete
false
delete
delete
null
24
null
null
delete
-85
null
delete
null
delete
delete
-34
true
delete
true
true
delete
delete
delete
false
delete
true
50
false
delete
delete
false
false
true
33
delete
false
null
null
7
null
true
false
delete
null
false
delete
delete
delete
null
delete
true
null
-47
delete
delete
null
true
delete
null
null
27
-47
true
null
true
true
null
null
delete
delete
true
null
true
false
true
false
delete
true
null
delete
true
true
null
null
delete
true
null
null
delete
null
true
delete
null
delete
false
delete
delete
true
false
false
delete
null
null
delete
delete
null
20
true
delete
delete
delete
null
null
delete
null
null
-62
delete
delete
null
false
delete
null
delete
true
delete
null
delete
true
null
true
delete
79
false
true
delete
true
true
null
delete
true
delete
null
delete
false
delete
delete
7
false
delete
delete
true
delete
true
-10
29
false
7
null
true
delete
delete
null
true
delete
7
delete
null
null
null
false
true
true
null
20
true
delete
1
true
null
45
delete
null
false
null
-1
delete
delete
null
null
delete
null
null
delete
delete
true
true
delete
delete
-73
delete
null
null
null
null
delete
delete
null
20
delete
delete
true
true
delete
delete
delete
true
delete
null
false
true
delete
delete
delete
false
null
false
true
delete
delete
null
delete
false
delete
delete
delete
delete
true
delete
null
19
-77
false
delete
null
false
true
-17
true
true
delete
true
null
delete
true
true
null
true
delete
delete
null
delete
delete
delete
null
null
delete
null
false
null
null
delete
86
delete
70
null
null
null
54
delete
true
false
delete
true
20
true
true
delete
true
delete
null
null
true
null
delete
null
delete
delete
delete
false
true
delete
null
true
54
delete
delete
false
delete
delete
true
null
delete
false
null
true
null
true
null
null
true
true
delete
null
true
true
delete
delete
delete
true
null
delete
delete
false
delete
true
delete
null
null
true
null
true
null
-76
delete
null
delete
false
null
null
delete
delete
null
delete
43
delete
null
true
delete
true
true
true
31
delete
delete
delete
null
delete
-73
delete
delete
false
null
null
delete
null
null
delete
87
delete
delete
null
delete
true
7
false
delete
delete
delete
-24
null
6
null
delete
false
delete
null
54
delete
true
delete
true
false
null
true
true
-90
delete
true
delete
true
null
true
false
delete
null
null
delete
null
delete
true
delete
null
delete
delete
47
false
delete
delete
delete
null
true
true
delete
delete
true
true
70
31
false
false
true
true
delete
delete
null
null
-73
delete
true
delete
false
false
delete
delete
null
delete
true
delete
delete
false
true
delete
-73
delete
true
delete
null
-73
delete
true
null
delete
true
true
delete
true
true
76
true
delete
true
47
true
57
null
null
true
delete
null
delete
delete
delete
null
false
false
delete
null
-62
-73
false
delete
delete
false
delete
true
delete
null
true
true
delete
true
delete
delete
null
null
delete
45
delete
delete
true
false
null
delete
73
delete
true
true
delete
delete
true
false
false
true
delete
true
true
delete
65
true
null
-85
false
null
4
delete
true
true
null
false
true
true
delete
delete
delete
null
true
null
false
false
null
true
null
-82
false
false
false
delete
null
null
false
delete
delete
delete
false
null
delete
null
null
delete
null
delete
delete
null
true
-12
48
delete
true
null
true
delete
true
true
true
true
null
-68
null
delete
null
delete
delete
-1
null
20
true
false
true
true
null
-24
false
delete
delete
false
delete
8
null
delete
true
null
null
delete
delete
false
delete
76
null
false
false
delete
true
delete
null
true
-82
delete
null
true
delete
null
true
45
delete
delete
true
delete
null
null
delete
delete
delete
true
delete
91
delete
false
false
71
delete
delete
true
true
true
delete
10
-24
true
null
true
true
true
false
null
delete
null
null
delete
true
delete
delete
false
delete
null
null
null
6
null
delete
null
true
57
-24
false
null
delete
true
false
false
true
delete
true
true
delete
delete
true
delete
6
delete
delete
null
delete
true
delete
26
delete
null
delete
delete
true
delete
delete
delete
null
delete
true
delete
false
false
delete
delete
27
1
delete
false
delete
75
null
true
delete
null
false
null
delete
delete
-75
true
false
delete
delete
delete
68
-57
false
delete
null
null
delete
null
false
false
delete
delete
false
null
false
delete
delete
false
delete
delete
delete
delete
delete
null
54
null
delete
true
delete
true
true
delete
55
delete
delete
delete
true
null
-30
10
true
true
null
delete
delete
delete
75
null
delete
true
true
null
null
null
true
false
true
true
delete
delete
null
true
true
true
delete
delete
99
null
delete
null
false
delete
false
null
delete
delete
false
true
delete
delete
delete
true
delete
true
true
0
true
false
10
1
false
null
false
null
null
true
-82
delete
true
false
true
null
true
null
false
delete
delete
delete
delete
true
null
null
delete
null
null
null
delete
delete
4
null
true
false
6
delete
false
delete
null
null
delete
delete
true
delete
delete
true
true
null
null
delete
delete
delete
null
delete
null
delete
delete
delete
null
true
delete
delete
null
null
false
-8
delete
54
null
null
true
null
null
false
true
null
true
delete
1
null
true
null
true
delete
delete
delete
null
delete
false
delete
false
-10
null
null
null
null
1
8
true
true
false
null
null
54
delete
null
null
null
true
delete
-42
delete
delete
null
null
true
delete
null
delete
true
true
null
true
true
true
null
delete
delete
delete
delete
delete
delete
false
null
delete
false
delete
delete
false
true
null
false
-78
false
delete
delete
true
null
delete
delete
null
null
delete
false
true
-2
true
delete
true
null
true
null
delete
null
delete
delete
true
true
true
true
-82
false
delete
null
delete
false
true
true
true
36
delete
delete
true
delete
null
delete
false
delete
delete
delete
true
null
true
null
true
null
true
6
null
delete
-21
false
null
delete
delete
delete
delete
delete
true
true
true
79
true
null
delete
delete
true
null
true
true
null
null
delete
delete
true
null
delete
68
true
delete
null
delete
true
true
false
delete
delete
false
delete
null
delete
-92
delete
true
false
null
delete
delete
true
delete
-21
null
delete
delete
true
false
null
delete
0
delete
null
null
delete
delete
delete
null
delete
delete
false
26
false
8
delete
delete
delete
null
delete
delete
delete
delete
false
21
delete
delete
delete
false
delete
null
delete
delete
null
null
null
true
null
true
delete
false
null
null
null
delete
false
null
null
true
null
delete
false
null
true
delete
delete
delete
delete
true
null
delete
null
delete
delete
null
-92
delete
delete
true
delete
delete
null
true
delete
false
delete
false
true
delete
delete
null
21
delete
true
true
delete
null
delete
null
true
null
26
true
null
-10
delete
delete
delete
true
false
delete
null
false
delete
37
delete
delete
true
null
delete
delete
false
null
true
true
23
delete
26
true
null
91
true
null
null
delete
true
-40
91
null
76
true
delete
false
null
true
delete
false
true
null
true
true
delete
true
-21
false
delete
false
null
delete
false
delete
delete
false
delete
-59
true
delete
null
delete
true
false
31
-16
true
false
delete
true
57
delete
null
delete
null
true
26
4
false
delete
delete
23
false
null
delete
91
35
delete
false
null
true
null
delete
57
delete
delete
false
delete
9
delete
delete
delete
delete
false
delete
delete
delete
delete
delete
true
null
false
false
true
false
delete
null
36
45
null
true
null
delete
false
true
true
36
delete
delete
delete
null
delete
null
true
43
delete
delete
true
false
true
-22
true
null
false
delete
delete
true
false
null
delete
false
null
false
delete
true
delete
true
false
delete
null
false
delete
delete
delete
delete
false
delete
delete
delete
true
delete
delete
delete
true
delete
57
true
false
null
delete
false
true
null
null
delete
null
true
delete
delete
null
null
true
delete
true
null
-68
31
delete
79
true
true
true
delete
false
false
null
null
null
delete
true
null
null
delete
true
20
delete
false
delete
delete
true
true
false
delete
true
-78
false
null
null
71
delete
delete
false
null
null
null
delete
true
true
delete
delete
91
false
false
true
null
null
delete
null
true
null
delete
delete
null
true
false
delete
null
delete
true
delete
delete
true
true
true
68
10
true
delete
false
delete
true
delete
null
delete
-62
true
delete
delete
true
delete
delete
null
false
true
delete
delete
true
false
true
-26
null
false
delete
delete
null
null
false
delete
delete
null
false
37
delete
delete
false
null
null
true
delete
delete
true
true
4
null
true
null
delete
true
null
null
delete
true
null
true
null
null
null
false
false
null
delete
false
delete
null
delete
null
null
delete
null
false
delete
delete
true
delete
null
null
-73
delete
null
-24
delete
true
true
null
-1
null
true
-57
delete
null
true
null
delete
false
delete
true
null
true
true
null
true
delete
31
delete
true
-24
delete
true
null
null
delete
null
-92
false
delete
null
delete
50
delete
delete
-1
72
31
true
delete
true
true
null
true
delete
false
-39
true
true
true
51
true
true
null
delete
-71
delete
true
null
null
false
27
false
delete
true
delete
delete
true
null
true
delete
delete
null
null
delete
null
79
null
true
true
delete
delete
true
null
false
delete
null
true
delete
null
delete
true
null
true
true
delete
null
36
delete
true
72
null
delete
delete
delete
delete
delete
null
delete
delete
null
59
-42
true
null
true
false
false
null
delete
delete
true
null
-71
delete
delete
false
72
true
delete
-85
delete
delete
false
false
-78
delete
delete
false
true
delete
false
true
43
delete
null
79
34
-6
35
delete
true
delete
delete
true
null
delete
false
-82
delete
-1
delete
true
true
-85
true
false
true
null
false
null
delete
71
null
delete
null
false
delete
delete
true
false
false
delete
delete
true
delete
false
false
null
true
true
-90
null
true
true
delete
delete
false
-24
delete
false
null
false
null
null
delete
true
null
delete
true
null
delete
delete
delete
true
delete
false
null
delete
delete
null
delete
true
true
null
false
true
delete
null
null
31
null
false
delete
null
false
delete
true
null
null
true
true
null
null
false
delete
null
delete
true
false
delete
false
delete
delete
delete
43
true
null
delete
null
delete
false
true
delete
delete
null
true
true
delete
delete
delete
delete
delete
null
37
delete
true
delete
false
true
null
false
false
true
true
delete
delete
64
null
true
delete
false
delete
true
delete
true
-55
delete
true
null
true
delete
delete
delete
null
null
false
null
delete
-3
true
true
delete
delete
null
delete
true
false
delete
true
true
delete
false
null
false
true
delete
true
true
delete
delete
delete
true
delete
false
true
null
delete
null
delete
false
delete
true
true
delete
false
delete
null
null
null
null
true
true
delete
true
delete
-73
true
true
22
null
delete
delete
false
true
delete
31
true
true
false
true
delete
null
null
true
51
false
delete
-39
false
true
true
delete
delete
true
delete
delete
-71
false
delete
delete
delete
delete
delete
true
true
null
true
-62
null
true
null
57
delete
null
delete
true
null
-97
true
delete
null
delete
delete
true
true
delete
false
null
false
false
true
delete
delete
true
delete
false
-73
delete
-73
false
delete
null
null
true
delete
59
null
false
false
delete
true
true
delete
delete
null
22
true
null
delete
false
delete
-15
false
delete
null
true
delete
delete
false
null
22
null
true
null
delete
null
false
delete
true
true
null
null
true
true
false
null
delete
delete
true
null
-78
false
delete
true
false
delete
delete
delete
delete
null
false
null
true
delete
true
true
false
true
null
delete
null
true
91
null
true
true
delete
delete
0
false
null
null
false
delete
13
null
delete
true
delete
false
null
delete
false
false
delete
true
true
23
null
delete
true
true
true
true
delete
null
delete
33
delete
null
20
delete
delete
null
delete
68
false
delete
null
delete
delete
54
delete
delete
true
null
true
delete
true
false
true
false
delete
null
true
true
delete
-61
0
delete
delete
true
true
delete
true
false
null
null
-68
50
true
delete
delete
delete
false
null
delete
delete
null
15
null
delete
51
true
null
-73
null
null
delete
76
true
true
delete
null
delete
delete
null
delete
13
delete
null
false
false
delete
null
true
null
true
true
true
delete
-88
delete
null
false
true
false
null
delete
15
-88
delete
delete
false
-3
true
false
delete
delete
false
true
31
10
delete
delete
delete
null
-73
true
false
delete
delete
9
delete
null
null
false
false
null
null
true
null
delete
true
delete
null
delete
true
delete
delete
delete
false
delete
null
null
delete
null
delete
delete
delete
delete
false
delete
delete
delete
delete
delete
null
false
true
delete
null
false
-21
null
delete
-44
delete
-62
true
delete
true
delete
delete
false
true
delete
null
delete
null
delete
true
null
false
null
false
15
48
15
true
delete
null
delete
true
null
-13
true
48
delete
false
delete
null
false
null
delete
delete
delete
31
true
true
true
79
delete
delete
true
delete
false
true
delete
20
48
null
false
null
true
delete
null
48
9
false
null
false
delete
delete
true
null
delete
true
delete
delete
false
true
null
delete
false
-96
71
true
delete
true
false
71
true
true
delete
true
-78
null
true
null
true
delete
true
true
null
true
true
16
null
true
delete
true
null
true
delete
false
false
-61
true
3
71
false
false
12
6
false
delete
delete
false
null
false
delete
true
null
delete
delete
delete
delete
true
delete
delete
delete
delete
false
-1
null
null
delete
delete
true
null
true
-33
delete
null
true
true
true
false
null
true
delete
delete
true
true
null
13
delete
-71
true
true
-73
delete
delete
delete
true
-62
null
55
null
null
true
4
delete
27
false
true
delete
23
false
null
true
delete
null
delete
delete
96
delete
true
false
delete
delete
null
delete
delete
delete
false
delete
true
delete
false
-73
10
false
10
null
delete
false
true
null
-82
null
false
null
delete
true
delete
null
true
true
null
27
delete
-57
delete
false
delete
true
delete
-48
-45
48
delete
false
delete
delete
delete
true
delete
false
37
true
true
null
delete
delete
delete
false
-90
false
-44
true
true
delete
delete
delete
delete
delete
null
delete
null
true
87
delete
false
false
null
delete
15
57
null
true
false
delete
delete
null
delete
null
delete
delete
delete
delete
true
delete
-29
null
12
delete
null
true
delete
true
false
true
true
null
true
-82
null
delete
null
null
null
null
false
null
false
true
-71
null
true
delete
true
true
delete
delete
delete
57
delete
delete
true
delete
null
null
null
delete
null
delete
true
true
null
delete
null
delete
true
false
delete
delete
true
delete
true
true
false
null
true
-51
delete
null
null
null
delete
delete
delete
null
delete
43
delete
-82
delete
delete
delete
delete
true
null
-82
true
delete
true
48
false
null
delete
null
true
false
delete
true
delete
true
false
delete
true
null
delete
delete
null
null
-40
false
null
delete
true
delete
true
delete
true
37
delete
false
delete
null
true
delete
54
delete
null
delete
true
delete
true
delete
null
delete
35
false
null
true
false
delete
delete
null
delete
delete
true
true
true
true
null
false
delete
delete
true
delete
delete
null
null
false
delete
delete
-17
true
true
6
delete
null
delete
null
null
null
-17
true
true
false
null
false
delete
true
delete
delete
delete
false
true
null
true
delete
delete
delete
delete
delete
delete
false
-82
-40
null
delete
true
delete
delete
true
false
null
null
delete
true
23
false
null
false
delete
delete
false
false
null
true
delete
true
false
-44
null
delete
delete
-64
48
false
delete
false
null
50
26
delete
null
true
delete
true
delete
true
delete
null
null
true
false
false
delete
false
true
delete
false
-21
true
true
false
false
null
delete
delete
48
false
delete
null
false
null
null
-56
false
null
35
delete
null
false
delete
true
null
delete
86
true
delete
delete
null
delete
delete
true
null
delete
delete
delete
null
null
false
delete
null
delete
false
null
delete
null
delete
false
false
false
delete
null
-68
true
null
false
delete
null
0
true
false
-85
false
delete
false
false
delete
null
null
true
delete
null
15
null
false
true
null
delete
true
delete
null
0
true
null
72
null
null
null
delete
null
true
true
null
false
true
delete
false
true
false
false
delete
null
26
delete
null
delete
48
delete
true
delete
delete
null
delete
true
false
true
null
null
null
null
54
delete
delete
delete
false
delete
null
delete
delete
-82
null
delete
null
delete
null
false
false
4
delete
null
null
delete
false
delete
true
null
false
false
true
delete
true
null
delete
true
delete
true
null
delete
true
14
delete
true
delete
null
delete
delete
true
delete
delete
null
true
-83
null
delete
null
null
delete
true
true
null
false
delete
true
null
false
delete
null
true
true
14
true
null
null
delete
false
false
true
null
null
true
null
delete
delete
-92
-78
20
false
4
delete
delete
true
delete
delete
true
delete
delete
-82
-56
delete
delete
false
true
true
true
true
13
delete
delete
delete
delete
delete
true
true
delete
delete
delete
null
delete
delete
delete
null
true
null
delete
delete
delete
delete
delete
delete
false
48
delete
false
81
null
null
true
delete
true
-33
delete
false
null
delete
delete
null
null
null
false
true
true
null
delete
87
null
false
null
false
delete
null
delete
null
null
null
true
delete
delete
null
delete
null
null
false
true
57
delete
true
true
null
delete
delete
delete
true
delete
true
null
true
delete
delete
delete
delete
true
null
null
null
delete
delete
delete
true
43
delete
true
false
delete
null
delete
true
true
true
delete
true
false
false
true
null
false
delete
delete
31
delete
delete
false
null
delete
delete
delete
null
null
-1
delete
57
false
null
true
false
delete
delete
null
false
null
null
11
delete
true
null
null
true
delete
null
delete
98
false
23
delete
delete
null
-36
null
delete
delete
null
null
null
null
false
true
true
null
true
true
true
null
delete
null
true
null
delete
false
delete
null
true
delete
true
null
null
true
delete
true
true
delete
20
null
true
-78
true
delete
48
false
true
true
null
true
delete
null
null
delete
delete
null
delete
delete
true
delete
true
delete
true
true
-17
50
null
true
false
delete
31
delete
false
delete
false
true
null
null
false
delete
null
null
false
delete
false
true
null
delete
true
delete
null
delete
delete
delete
true
delete
delete
false
true
null
true
null
delete
null
null
-17
delete
null
delete
null
null
delete
true
delete
10
null
delete
null
null
true
false
null
null
delete
delete
null
true
delete
true
delete
delete
31
true
delete
delete
true
-71
false
null
delete
null
false
delete
48
delete
null
null
48
delete
null
null
true
delete
true
delete
45
null
delete
delete
delete
null
delete
delete
delete
true
true
true
delete
true
true
null
true
true
null
null
null
true
31
true
null
null
delete
false
delete
delete
delete
delete
delete
delete
true
delete
45
delete
true
delete
delete
true
48
delete
-100
-52
null
delete
null
delete
null
null
null
delete
false
-92
delete
delete
null
delete
-83
delete
false
true
delete
-25
null
delete
true
delete
null
true
delete
null
48
delete
true
null
null
null
-71
delete
-3
null
false
delete
false
delete
true
true
delete
true
delete
true
null
delete
true
delete
true
delete
true
-60
true
false
delete
null
false
delete
true
delete
false
delete
-17
delete
true
null
delete
true
20
true
true
delete
true
null
delete
delete
false
true
true
null
delete
true
delete
false
true
true
true
delete
true
true
delete
delete
delete
delete
delete
delete
true
delete
delete
delete
delete
null
null
true
null
null
true
null
null
delete
false
null
delete
-68
97
false
null
false
delete
delete
delete
false
false
delete
delete
delete
delete
-85
null
delete
delete
null
delete
null
false
null
delete
delete
delete
null
true
true
-82
true
delete
-87
false
88
delete
delete
delete
delete
delete
delete
null
delete
delete
null
true
54
true
delete
delete
31
null
true
null
null
false
null
null
delete
false
-38
true
delete
null
delete
34
delete
true
delete
null
true
delete
null
delete
true
delete
delete
delete
delete
false
null
delete
null
delete
delete
true
delete
true
null
null
null
false
null
true
null
true
false
delete
delete
false
delete
null
delete
79
true
true
null
delete
delete
null
true
delete
delete
delete
delete
null
true
null
null
delete
delete
delete
null
delete
null
-24
null
true
true
true
delete
44
-83
true
null
delete
delete
true
true
delete
null
23
true
false
true
delete
false
null
true
delete
null
true
null
delete
delete
null
delete
null
delete
-7
true
delete
delete
delete
true
91
delete
delete
true
delete
null
null
delete
delete
true
true
false
null
null
true
null
delete
delete
delete
delete
delete
true
43
79
true
null
null
true
delete
null
false
44
true
true
true
true
delete
null
delete
false
true
delete
null
delete
delete
true
false
true
null
false
true
-25
true
44
null
null
delete
true
delete
false
null
delete
true
delete
null
64
null
delete
delete
-51
true
delete
false
true
true
delete
delete
null
true
true
true
delete
null
delete
null
null
false
delete
delete
23
null
delete
true
false
delete
delete
null
true
delete
null
-91
delete
null
false
delete
true
delete
-89
true
-24
-24
23
delete
true
null
delete
null
-24
-9
null
true
true
delete
null
null
true
delete
true
false
delete
true
delete
null
null
delete
delete
true
delete
delete
true
delete
delete
null
true
delete
true
delete
true
true
delete
43
-26
true
true
33
false
delete
false
null
delete
null
true
-24
true
null
true
-92
delete
delete
20
null
true
true
true
false
false
48
true
delete
null
null
false
delete
true
23
true
null
delete
delete
true
delete
true
delete
true
null
null
delete
delete
false
delete
delete
delete
delete
delete
true
true
true
delete
null
false
null
null
delete
-78
delete
delete
delete
-89
delete
null
true
true
delete
false
delete
delete
true
true
false
true
true
null
true
delete
-38
delete
true
false
true
delete
delete
delete
null
delete
null
null
null
null
delete
true
44
true
delete
null
delete
delete
null
null
delete
delete
null
false
true
null
null
true
false
true
true
delete
delete
true
false
delete
null
delete
true
true
null
true
delete
-73
31
false
false
88
false
true
null
null
false
true
delete
true
null
null
false
null
true
null
null
null
false
delete
null
delete
false
delete
true
51
delete
delete
delete
delete
delete
null
null
-58
false
null
54
88
-85
-72
null
null
true
null
true
delete
delete
true
delete
delete
false
delete
true
delete
-71
delete
null
true
null
null
null
true
null
null
true
null
null
delete
delete
null
delete
null
true
delete
true
true
null
delete
null
delete
delete
null
true
null
true
null
true
55
null
true
null
50
-71
delete
false
null
false
-99
false
delete
null
delete
null
null
null
false
false
null
-85
delete
true
true
false
delete
true
-24
true
null
true
null
true
true
null
null
delete
null
true
-71
null
delete
delete
delete
delete
delete
null
null
true
null
-73
delete
delete
true
-24
delete
null
false
delete
true
null
null
true
delete
null
null
48
delete
-24
-61
true
true
true
false
true
null
-78
delete
null
null
true
delete
-71
-78
delete
delete
null
delete
null
null
delete
true
null
delete
delete
delete
-25
null
null
delete
null
true
delete
delete
delete
true
true
true
null
true
delete
null
48
true
delete
delete
true
null
delete
38
null
delete
delete
true
-79
null
-71
delete
delete
null
84
null
false
true
null
true
true
delete
null
delete
true
true
null
false
false
delete
false
null
-78
null
false
true
true
delete
false
delete
delete
null
true
true
delete
null
false
null
delete
true
delete
true
false
null
delete
true
null
true
false
delete
true
-75
delete
delete
-86
null
true
true
true
true
true
true
null
delete
true
delete
null
true
null
delete
delete
false
delete
delete
true
true
true
-21
true
delete
delete
null
false
-82
true
delete
delete
delete
null
true
null
-75
false
delete
null
null
null
false
delete
delete
delete
delete
false
true
null
null
true
null
null
delete
false
43
null
false
null
delete
delete
false
true
true
false
null
delete
null
null
true
true
delete
delete
null
delete
2
delete
null
true
delete
delete
delete
delete
true
-71
true
true
delete
-76
null
delete
delete
true
null
null
null
null
null
null
true
delete
delete
null
delete
true
null
null
false
delete
delete
null
false
null
true
true
true
null
true
delete
true
delete
80
delete
delete
null
true
delete
delete
delete
delete
-19
delete
2
false
false
false
delete
false
true
null
null
false
delete
null
false
delete
50
delete
delete
35
delete
null
true
delete
delete
null
delete
delete
delete
-29
null
true
null
true
true
delete
true
true
false
delete
null
false
delete
false
false
delete
null
true
null
79
true
true
true
delete
null
delete
false
delete
null
false
true
null
2
delete
null
delete
false
false
true
false
true
-27
false
null
null
false
delete
delete
true
delete
80
true
delete
true
true
null
null
false
-18
95
delete
true
true
delete
true
false
26
false
delete
-78
false
20
true
true
delete
delete
false
-61
null
null
null
54
79
delete
delete
null
false
delete
-71
null
true
true
delete
false
64
true
delete
delete
true
null
true
true
48
null
delete
true
delete
null
delete
delete
false
null
delete
false
null
null
true
true
delete
true
delete
delete
delete
delete
null
-78
delete
delete
delete
null
true
delete
null
true
true
23
true
false
true
true
delete
null
null
null
delete
delete
true
-69
39
null
delete
delete
null
true
null
null
false
delete
45
false
-90
false
false
39
null
delete
delete
null
delete
false
delete
delete
25
delete
false
delete
0
true
true
delete
delete
delete
delete
null
null
null
delete
null
true
null
false
delete
null
delete
delete
true
null
delete
null
delete
-76
delete
66
delete
null
false
89
delete
delete
null
null
delete
false
true
delete
delete
false
null
-8
delete
true
null
true
delete
false
true
14
delete
true
delete
null
delete
delete
null
true
null
0
43
true
54
0
true
false
true
null
false
delete
false
delete
null
true
delete
-18
true
delete
delete
delete
null
delete
true
false
false
delete
true
63
delete
50
delete
delete
false
null
-63
null
null
null
true
true
true
delete
delete
delete
null
78
false
null
null
-63
delete
-63
-78
null
true
78
delete
null
delete
null
true
false
71
true
delete
true
true
true
true
true
null
delete
null
false
false
null
delete
false
null
null
delete
20
false
delete
null
delete
null
true
true
false
delete
delete
delete
delete
-86
delete
delete
delete
4
delete
null
45
true
null
false
true
true
null
true
true
true
delete
delete
null
null
null
delete
82
true
delete
90
delete
null
true
95
63
true
delete
delete
true
delete
true
-99
true
null
delete
true
delete
false
true
-68
delete
-85
delete
25
-61
77
delete
null
null
true
-24
delete
null
null
delete
delete
null
delete
null
true
true
false
true
delete
delete
delete
delete
null
delete
23
null
false
true
delete
true
94
-78
-24
-75
delete
20
false
delete
null
false
delete
delete
true
-61
delete
delete
delete
null
true
true
true
delete
delete
null
false
delete
delete
true
true
true
-34
-92
true
false
delete
null
delete
delete
true
null
delete
null
50
null
true
true
delete
null
false
false
true
null
90
true
delete
-61
-51
false
false
delete
delete
-78
delete
false
true
false
delete
true
delete
delete
true
-68
delete
true
delete
null
82
delete
delete
true
null
delete
null
null
null
delete
95
40
false
23
false
true
true
-72
null
null
delete
delete
25
false
true
false
delete
delete
null
true
true
-34
delete
false
true
delete
true
true
false
false
delete
null
true
true
false
-75
delete
true
45
null
false
null
delete
null
null
true
false
delete
null
-97
null
delete
83
true
true
null
true
delete
delete
delete
delete
83
38
delete
-79
false
null
-98
false
delete
-18
null
delete
null
false
delete
null
true
true
-86
true
null
false
false
null
delete
-72
true
47
delete
38
null
23
true
true
-97
null
true
null
delete
null
null
delete
true
48
delete
null
true
false
null
false
null
delete
null
delete
delete
-37
false
-56
true
-38
true
true
95
delete
true
-98
delete
delete
null
null
null
delete
94
delete
false
null
-97
null
delete
null
delete
null
false
2
62
delete
delete
null
true
delete
delete
delete
delete
delete
null
delete
delete
true
delete
-37
false
delete
null
false
true
true
delete
delete
true
false
false
delete
delete
delete
null
delete
null
false
true
-92
null
delete
delete
true
false
delete
null
null
delete
delete
delete
null
true
delete
null
delete
0
delete
delete
delete
null
true
true
-38
delete
54
true
delete
0
null
delete
null
delete
-81
true
null
false
-56
delete
true
null
null
delete
true
-56
false
false
false
delete
delete
delete
delete
delete
null
null
-27
false
delete
-37
true
delete
false
false
false
delete
delete
null
delete
delete
true
null
true
true
delete
false
true
true
90
null
77
35
-66
true
null
true
null
delete
true
null
null
true
null
delete
null
delete
true
false
delete
delete
-24
null
true
true
delete
true
null
null
true
-72
null
true
null
false
false
false
delete
delete
delete
delete
delete
null
null
true
delete
-24
null
2
false
delete
41
false
true
null
47
delete
false
null
false
delete
false
delete
false
null
41
null
-98
47
true
null
delete
38
delete
false
false
true
23
true
delete
null
false
false
delete
true
-75
14
null
false
48
true
false
false
null
-64
false
false
true
delete
null
delete
true
null
true
null
delete
delete
false
delete
null
delete
null
false
91
true
delete
90
delete
false
false
delete
-62
26
null
delete
delete
true
true
true
delete
delete
true
delete
null
delete
delete
false
delete
delete
14
delete
null
-24
26
-7
6
true
-51
delete
null
null
true
delete
delete
null
false
delete
null
true
79
false
true
true
null
null
77
delete
false
null
delete
delete
true
delete
null
delete
true
null
false
true
false
null
delete
delete
true
delete
null
true
true
true
null
delete
false
delete
66
delete
null
true
false
delete
delete
delete
delete
delete
false
delete
null
null
true
-27
delete
-35
false
false
false
true
true
true
true
false
null
-80
-62
false
true
delete
true
-92
true
delete
null
delete
-82
null
true
delete
true
null
delete
null
null
false
delete
false
false
delete
-24
41
delete
delete
null
delete
delete
true
delete
true
true
-72
null
delete
null
delete
4
null
null
true
delete
false
null
2
true
false
delete
delete
false
true
null
delete
false
false
null
delete
null
null
delete
true
26
delete
null
delete
null
true
null
null
delete
true
true
null
true
delete
50
delete
false
delete
delete
delete
delete
-80
null
delete
null
true
-25
true
false
delete
delete
delete
true
79
true
delete
null
delete
delete
false
true
delete
null
null
delete
delete
delete
delete
null
-68
false
-12
null
true
delete
delete
delete
true
true
delete
null
60
delete
true
delete
false
delete
true
null
null
false
null
true
delete
true
delete
20
null
delete
true
delete
true
