null
null
null
null
null
true
false
null
null
null
null
null
null
null
true
null
null
true
true
null
null
null
null
null
null
null
null
null
null
null
true
true
true
null
null
null
null
null
null
null
null
null
null
null
true
true
null
true
true
null
null
-59
-59
true
null
null
null
false
null
null
true
true
false
null
null
null
null
true
null
null
22
null
true
null
null
true
true
null
false
null
true
true
false
null
null
null
null
null
19
false
true
null
null
-1
null
true
true
-59
true
null
null
null
true
null
null
false
false
true
null
33
null
null
null
null
true
null
null
-28
true
null
null
null
null
